using System;
using System.Linq;
using System.Text;
using System.Threading.Tasks;
using System.IO;
using System.Text.RegularExpressions;
using System.Collections;

namespace ScalaCompiler
{
    //token types
    enum ScalaTokenType { Keyword, Identifier, SpecialSymbol, Constant };

    //Scanner class
    class ScalaScanner
    {
        //attributes
        public string sourceCode;
        private int _sourceLineIdx;
        private int _tokenIndex;
        public int inputSymbolIdx;
        public char readingInputSymbol;
        public StringBuilder readingToken;
        public char[] keyWordPrefixes;
        public char[] identPrefixes;
        public char[] specialSymbols;
        private StringReader _symbolReader;
        private char[] _inputBuffer;

        //has
        public ScalaBookKeeper bookKeeper;
        public ScalaErrorHandler errorHandler;

        //identifier vars
        public char[] letterSymbols;

        //constant vars
        public char[] digitSymbols;
        public char[] constSymbols;

        //buffer vars
        private char _bufferedSymbol;
        private bool _flagBufferedSpecialSymbol;

        //construction
        public ScalaScanner(string sourceFileUrl, ScalaBookKeeper newBookKeeper, ScalaErrorHandler newErrorHandler)
        {
            //get source code
            readSourceCode(sourceFileUrl);

            //init vars
            inputSymbolIdx = 0;
            _sourceLineIdx = 1;
            _bufferedSymbol = '\0';
            _flagBufferedSpecialSymbol = true;
            _tokenIndex = 0;

            //init reader
            _symbolReader = new StringReader(sourceCode);
            _inputBuffer = new char[1];

            //asign new book keeper
            bookKeeper = newBookKeeper;

            //asign new error handler
            errorHandler = newErrorHandler;

            //identifier symbols
            letterSymbols = new char[] { 'a', 'b', 'c', 'd', 'e', 'f', 'g', 'h', 'i', 'j', 'k', 'l', 'm', 'n', 'o', 'p', 'q', 'r', 's', 't', 'u', 'v', 'w', 'x', 'y', 'z',
                                         'A', 'B', 'C', 'D', 'E', 'F', 'G', 'H', 'I', 'J', 'K', 'L', 'M', 'N', 'O', 'P', 'Q', 'R', 'S', 'T', 'U', 'V', 'W', 'X', 'Y', 'Z'};
         
            //constant symbols
            constSymbols = new char[] { '0', '1', '2', '3', '4', '5', '6', '7', '8', '9', '.'};
            digitSymbols = new char[] { '0', '1', '2', '3', '4', '5', '6', '7', '8', '9'};

            //declare prefixes
            keyWordPrefixes = new char[] { 'a', 'b', 'c', 'd', 'e', 'f', 'i', 'n', 'o', 'p', 'r', 's', 't', 'v', 'w', '=', '<' };
            identPrefixes = new char[] { 'g', 'h', 'j', 'k', 'l', 'm', 'q', 'u', 'x', 'y', 'z' };

            //special symbols
            specialSymbols = new char[] { '#', ';', '{', '}', '(', ')', ':', ',', '=', '+', '*', '@' };
        }

        //scan a token each time
        public ScalaToken scanToken()
        {
            //new token var
            ScalaToken newToken;

            //got buffered symbol
            if (_bufferedSymbol != '\0')
            {
                if (_flagBufferedSpecialSymbol)
                {
                    //got new token
                    newToken = new ScalaToken(++_tokenIndex, _bufferedSymbol.ToString(), ScalaTokenType.SpecialSymbol, _sourceLineIdx);

                    //print
                    bookKeeper.printToken(newToken);

                    //delete buffer
                    _bufferedSymbol = '\0';
                    return newToken;
                }
                //not a special symbol
                else
                {
                    init();

                    //save into the reading symbol
                    readingInputSymbol = _bufferedSymbol;

                    //delete buffer
                    _bufferedSymbol = '\0';
                    _flagBufferedSpecialSymbol = true;

                    goto startState;
                }
            }

            //initialize new Token
            init();

            //-----------------------Start state-----------------------------
            readSymbol();

        startState:
            //go to serparator block if hit space or line break
            if (isWordSeparatorSymbol(readingInputSymbol))
                goto separatorRoutine;
            //go to keyword block if hit first symbol of keywords
            else if (keyWordPrefixes.Contains(readingInputSymbol))
                goto keywordRoutine;
            //go to identifier block if hit a letter that is not first char of keywords
            else if (isLetterSymbol(readingInputSymbol))
                goto identRoutine;
            //go to constant block if hit a digit or dot
            else if (isConstantSymbol(readingInputSymbol))
                goto constRoutine;
            //go to special symbol block if hit a special symbol
            else if (isSpecialSymbol(readingInputSymbol))
                goto specialSymbolRoutine;
            //return if hit $
            else if (isEndOfSource())
                return null;
        //------------------END start state------------------------

        // -----------------separator routine-----------------------
        separatorRoutine:
            {
                //omit all consecutive spaces and line breaks
                while (isWordSeparatorSymbol(readSymbol())) ;
                goto startState;
            }
        //--------------END separator routine--------------------------

        //----------------------keyword Routine -------------------------
        keywordRoutine:
            {   //block A
                if (readingInputSymbol == 'a')
                {
                    // keyword ABSTRACT
                    //block AB
                    if (readSymbol(true) == 'b')
                    {
                        //block ABS
                        if (readSymbol(true) == 's')
                        {
                            //block ABST
                            if (readSymbol(true) == 't')
                            {
                                //block ABSTR
                                if (readSymbol(true) == 'r')
                                {
                                    //block ABSTRA
                                    if (readSymbol(true) == 'a')
                                    {
                                        //block ABSTRAC
                                        if (readSymbol(true) == 'c')
                                        {
                                            //block ABSTRACT
                                            if (readSymbol(true) == 't')
                                            {
                                                if (isTokenSeparatorSymbol(readSymbol(true)))
                                                    goto keywordAccepted;
                                                //check if token is identifer instead
                                                else if (isIdentifierSymbol(readingInputSymbol))
                                                    goto identRoutine;
                                                //got illegal symbol, treated as identifier
                                                else goto identError;
                                            }
                                            //sub-keyword identifier instead
                                            else if (isTokenSeparatorSymbol(readingInputSymbol))
                                                goto identAccepted;
                                            //check if token is identifer instead
                                            else if (isIdentifierSymbol(readingInputSymbol))
                                                goto identRoutine;
                                            //got illegal symbol, treated as identifier
                                            else goto identError;
                                        }
                                        //sub-keyword identifier instead
                                        else if (isTokenSeparatorSymbol(readingInputSymbol))
                                            goto identAccepted;
                                        //check if token is identifer instead
                                        else if (isIdentifierSymbol(readingInputSymbol))
                                            goto identRoutine;
                                        //got illegal symbol, treated as identifier
                                        else goto identError;
                                    }
                                    //sub-keyword identifier instead
                                    else if (isTokenSeparatorSymbol(readingInputSymbol))
                                        goto identAccepted;
                                    //check if token is identifer instead
                                    else if (isIdentifierSymbol(readingInputSymbol))
                                        goto identRoutine;
                                    //got illegal symbol, treated as identifier
                                    else goto identError;
                                }
                                //sub-keyword identifier instead
                                else if (isTokenSeparatorSymbol(readingInputSymbol))
                                    goto identAccepted;
                                //check if token is identifer instead
                                else if (isIdentifierSymbol(readingInputSymbol))
                                    goto identRoutine;
                                //got illegal symbol, treated as identifier
                                else goto identError;
                            }
                            //sub-keyword identifier instead
                            else if (isTokenSeparatorSymbol(readingInputSymbol))
                                goto identAccepted;
                            //check if token is identifer instead
                            else if (isIdentifierSymbol(readingInputSymbol))
                                goto identRoutine;
                            //got illegal symbol, treated as identifier
                            else goto identError;
                        }
                        //sub-keyword identifier instead
                        else if (isTokenSeparatorSymbol(readingInputSymbol))
                            goto identAccepted;
                        //check if token is identifer instead
                        else if (isIdentifierSymbol(readingInputSymbol))
                            goto identRoutine;
                        //got illegal symbol, treated as identifier
                        else goto identError;
                    }
                    // keyword AND
                    //block AN
                    else if (readingInputSymbol == 'n')
                    {
                        //block AND
                        if (readSymbol(true) == 'd')
                        {
                            if (isTokenSeparatorSymbol(readSymbol(true)))
                                goto keywordAccepted;
                            //check if token is identifer instead
                            else if (isIdentifierSymbol(readingInputSymbol))
                                goto identRoutine;
                            //got illegal symbol, treated as identifier
                            else goto identError;
                        }
                        //sub-keyword identifier instead
                        else if (isTokenSeparatorSymbol(readingInputSymbol))
                            goto identAccepted;
                        //check if token is identifer instead
                        else if (isIdentifierSymbol(readingInputSymbol))
                            goto identRoutine;
                        //got illegal symbol, treated as identifier
                        else goto identError;
                    }
                    //sub-keyword identifier instead
                    else if (isTokenSeparatorSymbol(readingInputSymbol))
                        goto identAccepted;
                    //check if token is identifer instead
                    else if (isIdentifierSymbol(readingInputSymbol))
                        goto identRoutine;
                    //got illegal symbol, treated as identifier
                    else goto identError;
                }
                // keyword BOOL
                else if (readingInputSymbol == 'b')
                {
                    //block BO
                    if (readSymbol(true) == 'o')
                    {
                        //block BOO
                        if (readSymbol(true) == 'o')
                        {
                            //block BOOL
                            if (readSymbol(true) == 'l')
                            {
                                if (isTokenSeparatorSymbol(readSymbol(true)))
                                    goto keywordAccepted;
                                //check if token is identifer instead
                                else if (isIdentifierSymbol(readingInputSymbol))
                                    goto identRoutine;
                                //got illegal symbol, treated as identifier
                                else goto identError;
                            }
                            //sub-keyword identifier instead
                            else if (isTokenSeparatorSymbol(readingInputSymbol))
                                goto identAccepted;
                            //check if token is identifer instead
                            else if (isIdentifierSymbol(readingInputSymbol))
                                goto identRoutine;
                            //got illegal symbol, treated as identifier
                            else goto identError;
                        }
                        //sub-keyword identifier instead
                        else if (isTokenSeparatorSymbol(readingInputSymbol))
                            goto identAccepted;
                        //check if token is identifer instead
                        else if (isIdentifierSymbol(readingInputSymbol))
                            goto identRoutine;
                        //got illegal symbol, treated as identifier
                        else goto identError;
                    }
                    //sub-keyword identifier instead
                    else if (isTokenSeparatorSymbol(readingInputSymbol))
                        goto identAccepted;
                    //check if token is identifer instead
                    else if (isIdentifierSymbol(readingInputSymbol))
                        goto identRoutine;
                    //got illegal symbol, treated as identifier
                    else goto identError;
                }
                //block C
                else if (readingInputSymbol == 'c')
                {
                    // keyword CASE
                    if (readSymbol(true) == 'a')
                    {
                        //block CAS
                        if (readSymbol(true) == 's')
                        {
                            //block CASE
                            if (readSymbol(true) == 'e')
                            {
                                if (isTokenSeparatorSymbol(readSymbol(true)))
                                    goto keywordAccepted;
                                //check if token is identifer instead
                                else if (isIdentifierSymbol(readingInputSymbol))
                                    goto identRoutine;
                                //got illegal symbol, treated as identifier
                                else goto identError;
                            }
                            //sub-keyword identifier instead
                            else if (isTokenSeparatorSymbol(readingInputSymbol))
                                goto identAccepted;
                            //check if token is identifer instead
                            else if (isIdentifierSymbol(readingInputSymbol))
                                goto identRoutine;
                            //got illegal symbol, treated as identifier
                            else goto identError;
                        }
                        //sub-keyword identifier instead
                        else if (isTokenSeparatorSymbol(readingInputSymbol))
                            goto identAccepted;
                        //check if token is identifer instead
                        else if (isIdentifierSymbol(readingInputSymbol))
                            goto identRoutine;
                        //got illegal symbol, treated as identifier
                        else goto identError;
                    }
                    // keyword CLASS
                    else if (readingInputSymbol == 'l')
                    {
                        //block CLA
                        if (readSymbol(true) == 'a')
                        {
                            //block CLAS
                            if (readSymbol(true) == 's')
                            {
                                //block CLASS
                                if (readSymbol(true) == 's')
                                {
                                    if (isTokenSeparatorSymbol(readSymbol(true)))
                                        goto keywordAccepted;
                                    //check if token is identifer instead
                                    else if (isIdentifierSymbol(readingInputSymbol))
                                        goto identRoutine;
                                    //got illegal symbol, treated as identifier
                                    else goto identError;
                                }
                                //sub-keyword identifier instead
                                else if (isTokenSeparatorSymbol(readingInputSymbol))
                                    goto identAccepted;
                                //check if token is identifer instead
                                else if (isIdentifierSymbol(readingInputSymbol))
                                    goto identRoutine;
                                //got illegal symbol, treated as identifier
                                else goto identError;
                            }
                            //sub-keyword identifier instead
                            else if (isTokenSeparatorSymbol(readingInputSymbol))
                                goto identAccepted;
                            //check if token is identifer instead
                            else if (isIdentifierSymbol(readingInputSymbol))
                                goto identRoutine;
                            //got illegal symbol, treated as identifier
                            else goto identError;
                        }
                        //sub-keyword identifier instead
                        else if (isTokenSeparatorSymbol(readingInputSymbol))
                            goto identAccepted;
                        //check if token is identifer instead
                        else if (isIdentifierSymbol(readingInputSymbol))
                            goto identRoutine;
                        //got illegal symbol, treated as identifier
                        else goto identError;
                    }
                    //sub-keyword identifier instead
                    else if (isTokenSeparatorSymbol(readingInputSymbol))
                        goto identAccepted;
                    //check if token is identifer instead
                    else if (isIdentifierSymbol(readingInputSymbol))
                        goto identRoutine;
                    //got illegal symbol, treated as identifier
                    else goto identError;
                }
                // keyword DEF
                else if (readingInputSymbol == 'd')
                {
                    //block DE
                    if (readSymbol(true) == 'e')
                    {
                        //block DEF
                        if (readSymbol(true) == 'f')
                        {
                            if (isTokenSeparatorSymbol(readSymbol(true)))
                                goto keywordAccepted;
                            //check if token is identifer instead
                            else if (isIdentifierSymbol(readingInputSymbol))
                                goto identRoutine;
                            //got illegal symbol, treated as identifier
                            else goto identError;
                        }
                        //sub-keyword identifier instead
                        else if (isTokenSeparatorSymbol(readingInputSymbol))
                            goto identAccepted;
                        //check if token is identifer instead
                        else if (isIdentifierSymbol(readingInputSymbol))
                            goto identRoutine;
                        //got illegal symbol, treated as identifier
                        else goto identError;
                    }
                    //sub-keyword identifier instead
                    else if (isTokenSeparatorSymbol(readingInputSymbol))
                        goto identAccepted;
                    //check if token is identifer instead
                    else if (isIdentifierSymbol(readingInputSymbol))
                        goto identRoutine;
                    //got illegal symbol, treated as identifier
                    else goto identError;
                }
                // keyword ELSE
                else if (readingInputSymbol == 'e')
                {
                    //block EL
                    if (readSymbol(true) == 'l')
                    {
                        //block ELS
                        if (readSymbol(true) == 's')
                        {
                            //block ELSE
                            if (readSymbol(true) == 'e')
                            {
                                if (isTokenSeparatorSymbol(readSymbol(true)))
                                    goto keywordAccepted;
                                //check if token is identifer instead
                                else if (isIdentifierSymbol(readingInputSymbol))
                                    goto identRoutine;
                                //got illegal symbol, treated as identifier
                                else goto identError;
                            }
                            //sub-keyword identifier instead
                            else if (isTokenSeparatorSymbol(readingInputSymbol))
                                goto identAccepted;
                            //check if token is identifer instead
                            else if (isIdentifierSymbol(readingInputSymbol))
                                goto identRoutine;
                            //got illegal symbol, treated as identifier
                            else goto identError;
                        }
                        //sub-keyword identifier instead
                        else if (isTokenSeparatorSymbol(readingInputSymbol))
                            goto identAccepted;
                        //check if token is identifer instead
                        else if (isIdentifierSymbol(readingInputSymbol))
                            goto identRoutine;
                        //got illegal symbol, treated as identifier
                        else goto identError;
                    }
                    //sub-keyword identifier instead
                    else if (isTokenSeparatorSymbol(readingInputSymbol))
                        goto identAccepted;
                    //check if token is identifer instead
                    else if (isIdentifierSymbol(readingInputSymbol))
                        goto identRoutine;
                    //got illegal symbol, treated as identifier
                    else goto identError;
                }
                //block F
                else if (readingInputSymbol == 'f')
                {
                    // keyword FALSE
                    if (readSymbol(true) == 'a')
                    {
                        //block FAL
                        if (readSymbol(true) == 'l')
                        {
                            //block FALS
                            if (readSymbol(true) == 's')
                            {
                                //block FALSE
                                if (readSymbol(true) == 'e')
                                {
                                    if (isTokenSeparatorSymbol(readSymbol(true)))
                                        goto keywordAccepted;
                                    //check if token is identifer instead
                                    else if (isIdentifierSymbol(readingInputSymbol))
                                        goto identRoutine;
                                    //got illegal symbol, treated as identifier
                                    else goto identError;
                                }
                                //sub-keyword identifier instead
                                else if (isTokenSeparatorSymbol(readingInputSymbol))
                                    goto identAccepted;
                                //check if token is identifer instead
                                else if (isIdentifierSymbol(readingInputSymbol))
                                    goto identRoutine;
                                //got illegal symbol, treated as identifier
                                else goto identError;
                            }
                            //sub-keyword identifier instead
                            else if (isTokenSeparatorSymbol(readingInputSymbol))
                                goto identAccepted;
                            //check if token is identifer instead
                            else if (isIdentifierSymbol(readingInputSymbol))
                                goto identRoutine;
                            //got illegal symbol, treated as identifier
                            else goto identError;
                        }
                        //sub-keyword identifier instead
                        else if (isTokenSeparatorSymbol(readingInputSymbol))
                            goto identAccepted;
                        //check if token is identifer instead
                        else if (isIdentifierSymbol(readingInputSymbol))
                            goto identRoutine;
                        //got illegal symbol, treated as identifier
                        else goto identError;
                    }
                    // keyword FINAL
                    else if (readingInputSymbol == 'i')
                    {
                        //block FIN
                        if (readSymbol(true) == 'n')
                        {
                            //block FINA
                            if (readSymbol(true) == 'a')
                            {
                                //block FINAL
                                if (readSymbol(true) == 'l')
                                {
                                    if (isTokenSeparatorSymbol(readSymbol(true)))
                                        goto keywordAccepted;
                                    //check if token is identifer instead
                                    else if (isIdentifierSymbol(readingInputSymbol))
                                        goto identRoutine;
                                    //got illegal symbol, treated as identifier
                                    else goto identError;
                                }
                                //sub-keyword identifier instead
                                else if (isTokenSeparatorSymbol(readingInputSymbol))
                                    goto identAccepted;
                                //check if token is identifer instead
                                else if (isIdentifierSymbol(readingInputSymbol))
                                    goto identRoutine;
                                //got illegal symbol, treated as identifier
                                else goto identError;
                            }
                            //sub-keyword identifier instead
                            else if (isTokenSeparatorSymbol(readingInputSymbol))
                                goto identAccepted;
                            //check if token is identifer instead
                            else if (isIdentifierSymbol(readingInputSymbol))
                                goto identRoutine;
                            //got illegal symbol, treated as identifier
                            else goto identError;
                        }
                        //sub-keyword identifier instead
                        else if (isTokenSeparatorSymbol(readingInputSymbol))
                            goto identAccepted;
                        //check if token is identifer instead
                        else if (isIdentifierSymbol(readingInputSymbol))
                            goto identRoutine;
                        //got illegal symbol, treated as identifier
                        else goto identError;
                    }
                    //sub-keyword identifier instead
                    else if (isTokenSeparatorSymbol(readingInputSymbol))
                        goto identAccepted;
                    //check if token is identifer instead
                    else if (isIdentifierSymbol(readingInputSymbol))
                        goto identRoutine;
                    //got illegal symbol, treated as identifier
                    else goto identError;
                }
                //block I
                else if (readingInputSymbol == 'i')
                {
                    // keyword IF
                    //block IF
                    if (readSymbol(true) == 'f')
                    {
                        if (isTokenSeparatorSymbol(readSymbol(true)))
                            goto keywordAccepted;
                        //check if token is identifer instead
                        else if (isIdentifierSymbol(readingInputSymbol))
                            goto identRoutine;
                        //got illegal symbol, treated as identifier
                        else goto identError;
                    }
                    //block IN
                    else if (readingInputSymbol == 'n')
                    {
                        // keyword INT
                        if (readSymbol(true) == 't')
                        {
                            if (isTokenSeparatorSymbol(readSymbol(true)))
                                goto keywordAccepted;
                            //check if token is identifer instead
                            else if (isIdentifierSymbol(readingInputSymbol))
                                goto identRoutine;
                            //got illegal symbol, treated as identifier
                            else goto identError;
                        }
                        // keyword IN 
                        else if (isTokenSeparatorSymbol(readSymbol(true)))
                            goto keywordAccepted;
                        //check if token is identifer instead
                        else if (isIdentifierSymbol(readingInputSymbol))
                            goto identRoutine;
                        //got illegal symbol, treated as identifier
                        else goto identError;
                    }
                    // keyword IMPORT
                    else if (readingInputSymbol == 'm')
                    {
                        //block IMP
                        if (readSymbol(true) == 'p')
                        {
                            //block IMPO
                            if (readSymbol(true) == 'o')
                            {
                                //block IMPOR
                                if (readSymbol(true) == 'r')
                                {
                                    //block IMPORT
                                    if (readSymbol(true) == 't')
                                    {
                                        if (isTokenSeparatorSymbol(readSymbol(true)))
                                            goto keywordAccepted;
                                        //check if token is identifer instead
                                        else if (isIdentifierSymbol(readingInputSymbol))
                                            goto identRoutine;
                                        //got illegal symbol, treated as identifier
                                        else goto identError;
                                    }
                                    //sub-keyword identifier instead
                                    else if (isTokenSeparatorSymbol(readingInputSymbol))
                                        goto identAccepted;
                                    //check if token is identifer instead
                                    else if (isIdentifierSymbol(readingInputSymbol))
                                        goto identRoutine;
                                    //got illegal symbol, treated as identifier
                                    else goto identError;
                                }
                                //sub-keyword identifier instead
                                else if (isTokenSeparatorSymbol(readingInputSymbol))
                                    goto identAccepted;
                                //check if token is identifer instead
                                else if (isIdentifierSymbol(readingInputSymbol))
                                    goto identRoutine;
                                //got illegal symbol, treated as identifier
                                else goto identError;
                            }
                            //sub-keyword identifier instead
                            else if (isTokenSeparatorSymbol(readingInputSymbol))
                                goto identAccepted;
                            //check if token is identifer instead
                            else if (isIdentifierSymbol(readingInputSymbol))
                                goto identRoutine;
                            //got illegal symbol, treated as identifier
                            else goto identError;
                        }
                        //sub-keyword identifier instead
                        else if (isTokenSeparatorSymbol(readingInputSymbol))
                            goto identAccepted;
                        //check if token is identifer instead
                        else if (isIdentifierSymbol(readingInputSymbol))
                            goto identRoutine;
                        //got illegal symbol, treated as identifier
                        else goto identError;
                    }
                    //sub-keyword identifier instead
                    else if (isTokenSeparatorSymbol(readingInputSymbol))
                        goto identAccepted;
                    //check if token is identifer instead
                    else if (isIdentifierSymbol(readingInputSymbol))
                        goto identRoutine;
                    //got illegal symbol, treated as identifier
                    else goto identError;
                }
                // keyword NOT
                else if (readingInputSymbol == 'n')
                {
                    //block NO
                    if (readSymbol(true) == 'o')
                    {
                        //block NOT
                        if (readSymbol(true) == 't')
                        {
                            if (isTokenSeparatorSymbol(readSymbol(true)))
                                goto keywordAccepted;
                            //check if token is identifer instead
                            else if (isIdentifierSymbol(readingInputSymbol))
                                goto identRoutine;
                            //got illegal symbol, treated as identifier
                            else goto identError;
                        }
                        //sub-keyword identifier instead
                        else if (isTokenSeparatorSymbol(readingInputSymbol))
                            goto identAccepted;
                        //check if token is identifer instead
                        else if (isIdentifierSymbol(readingInputSymbol))
                            goto identRoutine;
                        //got illegal symbol, treated as identifier
                        else goto identError;
                    }
                    //sub-keyword identifier instead
                    else if (isTokenSeparatorSymbol(readingInputSymbol))
                        goto identAccepted;
                    //check if token is identifer instead
                    else if (isIdentifierSymbol(readingInputSymbol))
                        goto identRoutine;
                    //got illegal symbol, treated as identifier
                    else goto identError;
                }
                //block O
                else if (readingInputSymbol == 'o')
                {
                    // keyword OBJECT
                    //block OB
                    if (readSymbol(true) == 'b')
                    {
                        //block OBJ
                        if (readSymbol(true) == 'j')
                        {
                            //block OBJE
                            if (readSymbol(true) == 'e')
                            {
                                //block OBJEC
                                if (readSymbol(true) == 'c')
                                {
                                    //block OBJECT
                                    if (readSymbol(true) == 't')
                                    {
                                        if (isTokenSeparatorSymbol(readSymbol(true)))
                                            goto keywordAccepted;
                                        //check if token is identifer instead
                                        else if (isIdentifierSymbol(readingInputSymbol))
                                            goto identRoutine;
                                        //got illegal symbol, treated as identifier
                                        else goto identError;
                                    }
                                    //sub-keyword identifier instead
                                    else if (isTokenSeparatorSymbol(readingInputSymbol))
                                        goto identAccepted;
                                    //check if token is identifer instead
                                    else if (isIdentifierSymbol(readingInputSymbol))
                                        goto identRoutine;
                                    //got illegal symbol, treated as identifier
                                    else goto identError;
                                }
                                //sub-keyword identifier instead
                                else if (isTokenSeparatorSymbol(readingInputSymbol))
                                    goto identAccepted;
                                //check if token is identifer instead
                                else if (isIdentifierSymbol(readingInputSymbol))
                                    goto identRoutine;
                                //got illegal symbol, treated as identifier
                                else goto identError;
                            }
                            //sub-keyword identifier instead
                            else if (isTokenSeparatorSymbol(readingInputSymbol))
                                goto identAccepted;
                            //check if token is identifer instead
                            else if (isIdentifierSymbol(readingInputSymbol))
                                goto identRoutine;
                            //got illegal symbol, treated as identifier
                            else goto identError;
                        }
                        //sub-keyword identifier instead
                        else if (isTokenSeparatorSymbol(readingInputSymbol))
                            goto identAccepted;
                        //check if token is identifer instead
                        else if (isIdentifierSymbol(readingInputSymbol))
                            goto identRoutine;
                        //got illegal symbol, treated as identifier
                        else goto identError;
                    }
                    // keyword OR
                    else if (readingInputSymbol == 'r')
                    {
                        if (isTokenSeparatorSymbol(readSymbol(true)))
                            goto keywordAccepted;
                        //check if token is identifer instead
                        else if (isIdentifierSymbol(readingInputSymbol))
                            goto identRoutine;
                        //got illegal symbol, treated as identifier
                        else goto identError;
                    }
                    //sub-keyword identifier instead
                    else if (isTokenSeparatorSymbol(readingInputSymbol))
                        goto identAccepted;
                    //check if token is identifer instead
                    else if (isIdentifierSymbol(readingInputSymbol))
                        goto identRoutine;
                    //got illegal symbol, treated as identifier
                    else goto identError;
                }
                //block P
                else if (readingInputSymbol == 'p')
                {
                    // keyword PACKAGE
                    //block PA
                    if (readSymbol(true) == 'a')
                    {
                        //block PAC
                        if (readSymbol(true) == 'c')
                        {
                            //block PACK
                            if (readSymbol(true) == 'k')
                            {
                                //block PACKA
                                if (readSymbol(true) == 'a')
                                {
                                    //block PACKAG
                                    if (readSymbol(true) == 'g')
                                    {
                                        //block PACKAGE
                                        if (readSymbol(true) == 'e')
                                        {
                                            if (isTokenSeparatorSymbol(readSymbol(true)))
                                                goto keywordAccepted;
                                            //check if token is identifer instead
                                            else if (isIdentifierSymbol(readingInputSymbol))
                                                goto identRoutine;
                                            //got illegal symbol, treated as identifier
                                            else goto identError;
                                        }
                                        //sub-keyword identifier instead
                                        else if (isTokenSeparatorSymbol(readingInputSymbol))
                                            goto identAccepted;
                                        //check if token is identifer instead
                                        else if (isIdentifierSymbol(readingInputSymbol))
                                            goto identRoutine;
                                        //got illegal symbol, treated as identifier
                                        else goto identError;
                                    }
                                    //sub-keyword identifier instead
                                    else if (isTokenSeparatorSymbol(readingInputSymbol))
                                        goto identAccepted;
                                    //check if token is identifer instead
                                    else if (isIdentifierSymbol(readingInputSymbol))
                                        goto identRoutine;
                                    //got illegal symbol, treated as identifier
                                    else goto identError;
                                }
                                //sub-keyword identifier instead
                                else if (isTokenSeparatorSymbol(readingInputSymbol))
                                    goto identAccepted;
                                //check if token is identifer instead
                                else if (isIdentifierSymbol(readingInputSymbol))
                                    goto identRoutine;
                                //got illegal symbol, treated as identifier
                                else goto identError;
                            }
                            //sub-keyword identifier instead
                            else if (isTokenSeparatorSymbol(readingInputSymbol))
                                goto identAccepted;
                            //check if token is identifer instead
                            else if (isIdentifierSymbol(readingInputSymbol))
                                goto identRoutine;
                            //got illegal symbol, treated as identifier
                            else goto identError;
                        }
                        //sub-keyword identifier instead
                        else if (isTokenSeparatorSymbol(readingInputSymbol))
                            goto identAccepted;
                        //check if token is identifer instead
                        else if (isIdentifierSymbol(readingInputSymbol))
                            goto identRoutine;
                        //got illegal symbol, treated as identifier
                        else goto identError;
                    }
                    //block PR
                    else if (readingInputSymbol == 'r')
                    {
                        //block PRI
                        if (readSymbol(true) == 'i')
                        {
                            // keyword PRINT
                            //block PRIN
                            if (readSymbol(true) == 'n')
                            {
                                //block PRINT
                                if (readSymbol(true) == 't')
                                {
                                    if (isTokenSeparatorSymbol(readSymbol(true)))
                                        goto keywordAccepted;
                                    //check if token is identifer instead
                                    else if (isIdentifierSymbol(readingInputSymbol))
                                        goto identRoutine;
                                    //got illegal symbol, treated as identifier
                                    else goto identError;
                                }
                                //sub-keyword identifier instead
                                else if (isTokenSeparatorSymbol(readingInputSymbol))
                                    goto identAccepted;
                                //check if token is identifer instead
                                else if (isIdentifierSymbol(readingInputSymbol))
                                    goto identRoutine;
                                //got illegal symbol, treated as identifier
                                else goto identError;
                            }
                            // keyword PRIVATE
                            //block PRIV
                            else if (readingInputSymbol == 'v')
                            {
                                //block PRIVA
                                if (readSymbol(true) == 'a')
                                {
                                    //block PRIVAT
                                    if (readSymbol(true) == 't')
                                    {
                                        //block PRIVATE
                                        if (readSymbol(true) == 'e')
                                        {
                                            if (isTokenSeparatorSymbol(readSymbol(true)))
                                                goto keywordAccepted;
                                            //check if token is identifer instead
                                            else if (isIdentifierSymbol(readingInputSymbol))
                                                goto identRoutine;
                                            //got illegal symbol, treated as identifier
                                            else goto identError;
                                        }
                                        //sub-keyword identifier instead
                                        else if (isTokenSeparatorSymbol(readingInputSymbol))
                                            goto identAccepted;
                                        //check if token is identifer instead
                                        else if (isIdentifierSymbol(readingInputSymbol))
                                            goto identRoutine;
                                        //got illegal symbol, treated as identifier
                                        else goto identError;
                                    }
                                    //sub-keyword identifier instead
                                    else if (isTokenSeparatorSymbol(readingInputSymbol))
                                        goto identAccepted;
                                    //check if token is identifer instead
                                    else if (isIdentifierSymbol(readingInputSymbol))
                                        goto identRoutine;
                                    //got illegal symbol, treated as identifier
                                    else goto identError;
                                }
                                //sub-keyword identifier instead
                                else if (isTokenSeparatorSymbol(readingInputSymbol))
                                    goto identAccepted;
                                //check if token is identifer instead
                                else if (isIdentifierSymbol(readingInputSymbol))
                                    goto identRoutine;
                                //got illegal symbol, treated as identifier
                                else goto identError;
                            }
                        }
                        // keyword PROTECTED
                        else if (readingInputSymbol == 'o')
                        {
                            //block PROT
                            if (readSymbol(true) == 't')
                            {
                                //block PROTE
                                if (readSymbol(true) == 'e')
                                {
                                    //block PROTEC
                                    if (readSymbol(true) == 'c')
                                    {
                                        //block PROTECT
                                        if (readSymbol(true) == 't')
                                        {
                                            //block PROTECTE
                                            if (readSymbol(true) == 'e')
                                            {
                                                //block PROTECTED
                                                if (readSymbol(true) == 'd')
                                                {
                                                    if (isTokenSeparatorSymbol(readSymbol(true)))
                                                        goto keywordAccepted;
                                                    //check if token is identifer instead
                                                    else if (isIdentifierSymbol(readingInputSymbol))
                                                        goto identRoutine;
                                                    //got illegal symbol, treated as identifier
                                                    else goto identError;
                                                }
                                                //sub-keyword identifier instead
                                                else if (isTokenSeparatorSymbol(readingInputSymbol))
                                                    goto identAccepted;
                                                //check if token is identifer instead
                                                else if (isIdentifierSymbol(readingInputSymbol))
                                                    goto identRoutine;
                                                //got illegal symbol, treated as identifier
                                                else goto identError;
                                            }
                                            //sub-keyword identifier instead
                                            else if (isTokenSeparatorSymbol(readingInputSymbol))
                                                goto identAccepted;
                                            //check if token is identifer instead
                                            else if (isIdentifierSymbol(readingInputSymbol))
                                                goto identRoutine;
                                            //got illegal symbol, treated as identifier
                                            else goto identError;
                                        }
                                        //sub-keyword identifier instead
                                        else if (isTokenSeparatorSymbol(readingInputSymbol))
                                            goto identAccepted;
                                        //check if token is identifer instead
                                        else if (isIdentifierSymbol(readingInputSymbol))
                                            goto identRoutine;
                                        //got illegal symbol, treated as identifier
                                        else goto identError;
                                    }
                                    //sub-keyword identifier instead
                                    else if (isTokenSeparatorSymbol(readingInputSymbol))
                                        goto identAccepted;
                                    //check if token is identifer instead
                                    else if (isIdentifierSymbol(readingInputSymbol))
                                        goto identRoutine;
                                    //got illegal symbol, treated as identifier
                                    else goto identError;
                                }
                                //sub-keyword identifier instead
                                else if (isTokenSeparatorSymbol(readingInputSymbol))
                                    goto identAccepted;
                                //check if token is identifer instead
                                else if (isIdentifierSymbol(readingInputSymbol))
                                    goto identRoutine;
                                //got illegal symbol, treated as identifier
                                else goto identError;
                            }
                            //sub-keyword identifier instead
                            else if (isTokenSeparatorSymbol(readingInputSymbol))
                                goto identAccepted;
                            //check if token is identifer instead
                            else if (isIdentifierSymbol(readingInputSymbol))
                                goto identRoutine;
                            //got illegal symbol, treated as identifier
                            else goto identError;
                        }
                        //sub-keyword identifier instead
                        else if (isTokenSeparatorSymbol(readingInputSymbol))
                            goto identAccepted;
                        //check if token is identifer instead
                        else if (isIdentifierSymbol(readingInputSymbol))
                            goto identRoutine;
                        //got illegal symbol, treated as identifier
                        else goto identError;
                    }
                    //sub-keyword identifier instead
                    else if (isTokenSeparatorSymbol(readingInputSymbol))
                        goto identAccepted;
                    //check if token is identifer instead
                    else if (isIdentifierSymbol(readingInputSymbol))
                        goto identRoutine;
                    //got illegal symbol, treated as identifier
                    else goto identError;
                }
                //block R
                else if (readingInputSymbol == 'r')
                {
                    //block RE
                    if (readSymbol(true) == 'e')
                        // keyword RETURN
                        //block RET
                        if (readSymbol(true) == 't')
                        {
                            //block RETU
                            if (readSymbol(true) == 'u')
                            {
                                //block RETUR
                                if (readSymbol(true) == 'r')
                                {
                                    //block RETURN
                                    if (readSymbol(true) == 'n')
                                    {
                                        if (isTokenSeparatorSymbol(readSymbol(true)))
                                            goto keywordAccepted;
                                        //check if token is identifer instead
                                        else if (isIdentifierSymbol(readingInputSymbol))
                                            goto identRoutine;
                                        //got illegal symbol, treated as identifier
                                        else goto identError;
                                    }
                                    //sub-keyword identifier instead
                                    else if (isTokenSeparatorSymbol(readingInputSymbol))
                                        goto identAccepted;
                                    //check if token is identifer instead
                                    else if (isIdentifierSymbol(readingInputSymbol))
                                        goto identRoutine;
                                    //got illegal symbol, treated as identifier
                                    else goto identError;
                                }
                                //sub-keyword identifier instead
                                else if (isTokenSeparatorSymbol(readingInputSymbol))
                                    goto identAccepted;
                                //check if token is identifer instead
                                else if (isIdentifierSymbol(readingInputSymbol))
                                    goto identRoutine;
                                //got illegal symbol, treated as identifier
                                else goto identError;
                            }
                            //sub-keyword identifier instead
                            else if (isTokenSeparatorSymbol(readingInputSymbol))
                                goto identAccepted;
                            //check if token is identifer instead
                            else if (isIdentifierSymbol(readingInputSymbol))
                                goto identRoutine;
                            //got illegal symbol, treated as identifier
                            else goto identError;
                        }
                        // keyword REAL
                        else if (readingInputSymbol == 'a')
                        {
                            //block REAL
                            if (readSymbol(true) == 'l')
                            {
                                if (isTokenSeparatorSymbol(readSymbol(true)))
                                    goto keywordAccepted;
                                //check if token is identifer instead
                                else if (isIdentifierSymbol(readingInputSymbol))
                                    goto identRoutine;
                                //got illegal symbol, treated as identifier
                                else goto identError;
                            }
                            //sub-keyword identifier instead
                            else if (isTokenSeparatorSymbol(readingInputSymbol))
                                goto identAccepted;
                            //check if token is identifer instead
                            else if (isIdentifierSymbol(readingInputSymbol))
                                goto identRoutine;
                            //got illegal symbol, treated as identifier
                            else goto identError;
                        }
                        //sub-keyword identifier instead
                        else if (isTokenSeparatorSymbol(readingInputSymbol))
                            goto identAccepted;
                        //check if token is identifer instead
                        else if (isIdentifierSymbol(readingInputSymbol))
                            goto identRoutine;
                        //got illegal symbol, treated as identifier
                        else goto identError;
                }
                // keyword SEALED
                else if (readingInputSymbol == 's')
                {
                    //block SE
                    if (readSymbol(true) == 'e')
                    {
                        //block SEA
                        if (readSymbol(true) == 'a')
                        {
                            //block SEAL
                            if (readSymbol(true) == 'l')
                            {
                                //block SEALE
                                if (readSymbol(true) == 'e')
                                {
                                    //block SEALED
                                    if (readSymbol(true) == 'd')
                                    {
                                        if (isTokenSeparatorSymbol(readSymbol(true)))
                                            goto keywordAccepted;
                                        //check if token is identifer instead
                                        else if (isIdentifierSymbol(readingInputSymbol))
                                            goto identRoutine;
                                        //got illegal symbol, treated as identifier
                                        else goto identError;
                                    }
                                    //sub-keyword identifier instead
                                    else if (isTokenSeparatorSymbol(readingInputSymbol))
                                        goto identAccepted;
                                    //check if token is identifer instead
                                    else if (isIdentifierSymbol(readingInputSymbol))
                                        goto identRoutine;
                                    //got illegal symbol, treated as identifier
                                    else goto identError;
                                }
                                //sub-keyword identifier instead
                                else if (isTokenSeparatorSymbol(readingInputSymbol))
                                    goto identAccepted;
                                //check if token is identifer instead
                                else if (isIdentifierSymbol(readingInputSymbol))
                                    goto identRoutine;
                                //got illegal symbol, treated as identifier
                                else goto identError;
                            }
                            //sub-keyword identifier instead
                            else if (isTokenSeparatorSymbol(readingInputSymbol))
                                goto identAccepted;
                            //check if token is identifer instead
                            else if (isIdentifierSymbol(readingInputSymbol))
                                goto identRoutine;
                            //got illegal symbol, treated as identifier
                            else goto identError;
                        }
                        //sub-keyword identifier instead
                        else if (isTokenSeparatorSymbol(readingInputSymbol))
                            goto identAccepted;
                        //check if token is identifer instead
                        else if (isIdentifierSymbol(readingInputSymbol))
                            goto identRoutine;
                        //got illegal symbol, treated as identifier
                        else goto identError;
                    }
                    //sub-keyword identifier instead
                    else if (isTokenSeparatorSymbol(readingInputSymbol))
                        goto identAccepted;
                    //check if token is identifer instead
                    else if (isIdentifierSymbol(readingInputSymbol))
                        goto identRoutine;
                    //got illegal symbol, treated as identifier
                    else goto identError;
                }
                // keyword VAL
                else if (readingInputSymbol == 'v')
                {
                    //block VA
                    if (readSymbol(true) == 'a')
                    {
                        //block VAL
                        if (readSymbol(true) == 'l')
                        {
                            if (isTokenSeparatorSymbol(readSymbol(true)))
                                goto keywordAccepted;
                            //check if token is identifer instead
                            else if (isIdentifierSymbol(readingInputSymbol))
                                goto identRoutine;
                            //got illegal symbol, treated as identifier
                            else goto identError;
                        }
                        //sub-keyword identifier instead
                        else if (isTokenSeparatorSymbol(readingInputSymbol))
                            goto identAccepted;
                        //check if token is identifer instead
                        else if (isIdentifierSymbol(readingInputSymbol))
                            goto identRoutine;
                        //got illegal symbol, treated as identifier
                        else goto identError;
                    }
                    //sub-keyword identifier instead
                    else if (isTokenSeparatorSymbol(readingInputSymbol))
                        goto identAccepted;
                    //check if token is identifer instead
                    else if (isIdentifierSymbol(readingInputSymbol))
                        goto identRoutine;
                    //got illegal symbol, treated as identifier
                    else goto identError;
                }
                // keyword WHILE
                else if (readingInputSymbol == 'w')
                {
                    //block WH
                    if (readSymbol(true) == 'h')
                    {
                        //block WHI
                        if (readSymbol(true) == 'i')
                        {
                            //block WHIL
                            if (readSymbol(true) == 'l')
                            {
                                //block WHILE
                                if (readSymbol(true) == 'e')
                                {
                                    if (isTokenSeparatorSymbol(readSymbol(true)))
                                        goto keywordAccepted;
                                    //check if token is identifer instead
                                    else if (isIdentifierSymbol(readingInputSymbol))
                                        goto identRoutine;
                                    //got illegal symbol, treated as identifier
                                    else goto identError;
                                }
                                //sub-keyword identifier instead
                                else if (isTokenSeparatorSymbol(readingInputSymbol))
                                    goto identAccepted;
                                //check if token is identifer instead
                                else if (isIdentifierSymbol(readingInputSymbol))
                                    goto identRoutine;
                                //got illegal symbol, treated as identifier
                                else goto identError;
                            }
                            //sub-keyword identifier instead
                            else if (isTokenSeparatorSymbol(readingInputSymbol))
                                goto identAccepted;
                            //check if token is identifer instead
                            else if (isIdentifierSymbol(readingInputSymbol))
                                goto identRoutine;
                            //got illegal symbol, treated as identifier
                            else goto identError;
                        }
                        //sub-keyword identifier instead
                        else if (isTokenSeparatorSymbol(readingInputSymbol))
                            goto identAccepted;
                        //check if token is identifer instead
                        else if (isIdentifierSymbol(readingInputSymbol))
                            goto identRoutine;
                        //got illegal symbol, treated as identifier
                        else goto identError;
                    }
                    //sub-keyword identifier instead
                    else if (isTokenSeparatorSymbol(readingInputSymbol))
                        goto identAccepted;
                    //check if token is identifer instead
                    else if (isIdentifierSymbol(readingInputSymbol))
                        goto identRoutine;
                    //got illegal symbol, treated as identifier
                    else goto identError;
                }
                // keyword TRUE
                else if (readingInputSymbol == 't')
                {
                    //block TR
                    if (readSymbol(true) == 'r')
                    {
                        //block TRU
                        if (readSymbol(true) == 'u')
                        {
                            //block TRUE
                            if (readSymbol(true) == 'e')
                            {
                                if (isTokenSeparatorSymbol(readSymbol(true)))
                                    goto keywordAccepted;
                                //check if token is identifer instead
                                else if (isIdentifierSymbol(readingInputSymbol))
                                    goto identRoutine;
                                //got illegal symbol, treated as identifier
                                else goto identError;
                            }
                            //sub-keyword identifier instead
                            else if (isTokenSeparatorSymbol(readingInputSymbol))
                                goto identAccepted;
                            //check if token is identifer instead
                            else if (isIdentifierSymbol(readingInputSymbol))
                                goto identRoutine;
                            //got illegal symbol, treated as identifier
                            else goto identError;
                        }
                        //sub-keyword identifier instead
                        else if (isTokenSeparatorSymbol(readingInputSymbol))
                            goto identAccepted;
                        //check if token is identifer instead
                        else if (isIdentifierSymbol(readingInputSymbol))
                            goto identRoutine;
                        //got illegal symbol, treated as identifier
                        else goto identError;
                    }
                    //sub-keyword identifier instead
                    else if (isTokenSeparatorSymbol(readingInputSymbol))
                        goto identAccepted;
                    //check if token is identifer instead
                    else if (isIdentifierSymbol(readingInputSymbol))
                        goto identRoutine;
                    //got illegal symbol, treated as identifier
                    else goto identError;
                }
                //block =
                else if (readingInputSymbol == '=')
                {
                    // keyword =>
                    if (readSymbol(true) == '>')
                    {
                        if (isTokenSeparatorSymbol(readSymbol(true)))
                            goto keywordAccepted;
                        //check if token is identifer instead
                        else if (isIdentifierSymbol(readingInputSymbol))
                            goto identRoutine;
                        //got illegal symbol, treated as identifier
                        else goto identError;
                    }
                    //= is a special symbol
                    else
                    {
                        //got new token
                        newToken = new ScalaToken(++_tokenIndex, readingToken.ToString(), ScalaTokenType.SpecialSymbol, _sourceLineIdx);

                        //print
                        bookKeeper.printToken(newToken);

                        //save the next symbol into buffer
                        _flagBufferedSpecialSymbol = false;
                        _bufferedSymbol = readingInputSymbol;

                        return newToken;
                    }
                }
                //block <
                else if (readingInputSymbol == '<')
                {
                    // keyword <=
                    if (readSymbol(true) == '=')
                    {
                        if (isTokenSeparatorSymbol(readSymbol(true)))
                            goto keywordAccepted;
                        //got illegal symbol
                        else goto keywordError;
                    }
                    // error
                    else
                    {
                        //save expected symbol
                        errorHandler.expectedSymbol = '=';

                        //goto kw error
                        goto keywordError;
                    }

                }
                //sub-keyword identifier instead
                else if (isTokenSeparatorSymbol(readingInputSymbol))
                    goto identAccepted;
                //check if token is identifer instead
                else if (isIdentifierSymbol(readingInputSymbol))
                    goto identRoutine;
                //got illegal symbol, treated as identifier
                else goto identError;

                //keywordAccepted
            keywordAccepted:
                {
                    //got new token
                    newToken = new ScalaToken(++_tokenIndex, readingToken.ToString(), ScalaTokenType.Keyword, _sourceLineIdx);

                    //print
                    bookKeeper.printToken(newToken);

                    return newToken;
                }

            keywordError:
                {
                    //save erroring symbol
                    errorHandler.errorSymbol = readingInputSymbol;

                    //keep getting all symbols of errored token until get separator symbol
                    while (!isTokenSeparatorSymbol(readSymbol(true))) ;

                    //got new error token
                    newToken = new ScalaToken(++_tokenIndex, readingToken.ToString(), ScalaTokenType.Keyword, _sourceLineIdx);

                    //print
                    bookKeeper.printToken(newToken);

                    //send error message
                    errorHandler.printError(newToken);

                    return newToken;
                }

            }
        //-----------------END keyword routine------------------------------

            //---------------------identifier Routine---------------------------
        identRoutine:
            //add all digits and letters
            while (isIdentifierSymbol(readSymbol(true))) ;

            //accepted if hit separator, else rejected
            if (isTokenSeparatorSymbol(readingInputSymbol))
                goto identAccepted;
            else
                goto identError;

        identAccepted:
            //got new token
            newToken = new ScalaToken(++_tokenIndex, readingToken.ToString(), ScalaTokenType.Identifier, _sourceLineIdx);

            //add identifer to book keeper
            bookKeeper.addToken(newToken);

            //print
            bookKeeper.printToken(newToken);

            return newToken;

        identError:
            //save erroring symbol
            errorHandler.errorSymbol = readingInputSymbol;

            //keep getting all symbols of errored token until get separator symbol
            while (!isTokenSeparatorSymbol(readSymbol(true))) ;

            //got new error token
            newToken = new ScalaToken(++_tokenIndex, readingToken.ToString(), ScalaTokenType.Identifier, _sourceLineIdx);

            //print
            bookKeeper.printToken(newToken);

            //send error message
            errorHandler.printError(newToken);

            return newToken;
        //----------------END identifier routine------------------------

            //--------------constant Routine-----------------
        constRoutine:
            {
                //before decimal point
                if (readingInputSymbol != '.')
                {
                    //get all digit in 0-9
                    while (isDigitSymbol(readSymbol(true))) ;

                    //goto after decimal point if hit .
                    if (readingInputSymbol == '.')
                        goto constAfterDecimalPoint;
                    //accepted if hit separator
                    else if (isTokenSeparatorSymbol(readingInputSymbol))
                        goto constAccepted;
                    //rejected by unexpected symbol
                    else
                        goto constError;
                }

                //after decimal point
            constAfterDecimalPoint:

                //get all digit in 0-9
                while (isDigitSymbol(readSymbol(true))) ;

                //check separator
                if (isTokenSeparatorSymbol(readingInputSymbol))
                    goto constAccepted;
                else
                    goto constError;

            constAccepted:
                //got new token
                newToken = new ScalaToken(++_tokenIndex, readingToken.ToString(), ScalaTokenType.Constant, _sourceLineIdx);

                //add constant to book keeper
                bookKeeper.addToken(newToken);

                //print
                bookKeeper.printToken(newToken);

                return newToken;

            constError:
                //save erroring symbol
                errorHandler.errorSymbol = readingInputSymbol;

                //keep getting all symbols of errored token until get separator symbol
                while (!isTokenSeparatorSymbol(readSymbol(true))) ;

                //got new error token
                newToken = new ScalaToken(++_tokenIndex, readingToken.ToString(), ScalaTokenType.Constant, _sourceLineIdx);

                //print
                bookKeeper.printToken(newToken);

                //send error message
                errorHandler.printError(newToken);

                return newToken;

            }
        //-------------END constant routine ---------------

        //-------------- special symbol routine------------------
        specialSymbolRoutine:
            {
                //comment line
                if (readingInputSymbol == '#')
                {
                    //skipp the comment line
                    while (readSymbol() != '\n') ;

                    //go back to start state
                    goto startState;
                }

                //got new token
                newToken = new ScalaToken(++_tokenIndex, readingInputSymbol.ToString(), ScalaTokenType.SpecialSymbol, _sourceLineIdx);

                //print
                bookKeeper.printToken(newToken);

                return newToken;
            }

        }
        //--------------END special symbol routine------------------

        //reset current reading token
        private void init()
        {
            readingToken = new StringBuilder();
        }

        //check if symbol is $
        public bool isEndOfSource()
        {
            if (readingInputSymbol == '$')
                return true;
            return false;
        }

        //check if symbol is a space, line break or special symbol
        public bool isTokenSeparatorSymbol(char symbol)
        {
            if (isWordSeparatorSymbol(symbol))
            {
                return true;
            }


            if (isSpecialSymbol(symbol))
            {
                _bufferedSymbol = readingInputSymbol;

                return true;
            }
            return false;
        }

        //check if symbol is space or line break
        private bool isWordSeparatorSymbol(char symbol)
        {
            if (symbol == ' ')
                return true;

            if (symbol == '\r')
            {
                return true;
            }

            if (symbol == '\n')
            {
                //increase line index
                _sourceLineIdx++;
                return true;
            }

            return false;
        }

        //check if symbol is letter or digit or dot
        public bool isIdentifierSymbol(char symbol)
        {
            if (isLetterSymbol(symbol) || isConstantSymbol(symbol))
                return true;
            return false;
        }

        //check if symbol is a letter
        public bool isLetterSymbol(char symbol)
        {
            if (letterSymbols.Contains(symbol))
                return true;
            return false;
        }

        //check if symbol is special
        public bool isSpecialSymbol(char symbol)
        {
            if (specialSymbols.Contains(symbol))
                return true;
            return false;
        }

        //check if symbol is a digit or dot
        public bool isConstantSymbol(char symbol)
        {
            if (constSymbols.Contains(symbol))
                return true;
            return false;
        }

        //check if symbol is a digit
        public bool isDigitSymbol(char symbol)
        {
            if (digitSymbols.Contains(symbol))
                return true;
            return false;
        }

        //read source code from text file
        private void readSourceCode(string fileUrl)
        {
            System.IO.StreamReader myFile = new System.IO.StreamReader(fileUrl);

            sourceCode = myFile.ReadToEnd();

            myFile.Close();
        }

        //read next symbol in the source code
        private char readSymbol(bool addLastSymbol = false)
        {
            //add last symbol to the current token
            if (addLastSymbol)
                readingToken.Append(_inputBuffer);

            //read a new symbol
            char[] myChar = new char[0];

            _symbolReader.Read(_inputBuffer, 0, 1);

            readingInputSymbol = _inputBuffer[0];

            return readingInputSymbol;
        }
    }

    //Error Handler class
    class ScalaErrorHandler
    {
        public char errorSymbol;
        public char expectedSymbol;

        public ScalaErrorHandler()
        {
            errorSymbol = '\0';
            expectedSymbol = '\0';
        }

        //return a propriate error message
        private string getErrorMessage(ScalaTokenType errorTokenType)
        {
            string errorMessage = "";

            switch (errorTokenType)
            {
                case ScalaTokenType.Keyword:
                    errorMessage = String.Format("expected '{0}' instead of '{1}'", expectedSymbol, errorSymbol);
                    break;
                case ScalaTokenType.Identifier:
                    errorMessage = String.Format("has unexpected symbol '{0}'", errorSymbol);
                    break;
                case ScalaTokenType.Constant:
                    if (errorSymbol == '.')
                        errorMessage = "has more than one decimal point";
                    else
                        errorMessage = String.Format("has unexpected symbol '{0}'", errorSymbol);
                    break;
                case ScalaTokenType.SpecialSymbol:
                    //no error available for special symbol
                    break;
            }

            return errorMessage;
        }

        public void printError(ScalaToken token)
        {
            Console.WriteLine("Lexical error at line {0}: {1} \"{2}\" {3}.", token.line, token.type, token.name, getErrorMessage(token.type));
        }
    }

    //Book keeper class
    class ScalaBookKeeper
    {
        public ArrayList symTab;
        //private int _symTabIdx;

        public ScalaBookKeeper()
        {
            symTab = new ArrayList();
            //symTabIdx = 1;
        }

        public void addToken(ScalaToken token)
        {
            //check if the token is already exist
            if (!_checkExistToken(token))
            {
                //use symtab index
                //token.index = _symTabIdx++;

                //add
                symTab.Add(token);
            }

        }

        private bool _checkExistToken(ScalaToken newToken)
        {
            foreach (ScalaToken token in symTab)
            {
                if (token.name == newToken.name)
                    return true;
            }
            return false;
        }

        public void printSymTab()
        {
            Console.WriteLine("\n---SYMTAB---");
            Console.WriteLine("{0,-10}{1,-20}{2,-20}{3,-10}", "Index", "Token", "Type", "Line");
            Console.WriteLine("{0,-10}{1,-20}{2,-20}{3,-10}", "----------", "--------------------", "--------------------", "----------");

            int idx = 1;
            foreach (ScalaToken token in symTab)
            {
                Console.WriteLine("{0,-10}{1,-20}{2,-20}{3,-10}", idx++, token.name, token.type, token.line);
            }
        }

        public void printLexOutputHeader()
        {
            Console.WriteLine("\n---LEX OUTPUT---");
            Console.WriteLine("{0,-10}{1,-20}{2,-20}{3,-10}", "Index", "Token", "Type", "Line");
            Console.WriteLine("{0,-10}{1,-20}{2,-20}{3,-10}", "----------", "--------------------", "--------------------", "----------");
        }

        public void printToken(ScalaToken token)
        {
            Console.WriteLine("{0,-10}{1,-20}{2,-20}{3,-10}", token.index, token.name, token.type, token.line);
        }
    }

    //token class
    class ScalaToken
    {
        public int index;
        public string name;
        public ScalaTokenType type;
        public int line;

        public ScalaToken(int tIndex, string tName, ScalaTokenType tType, int tLine)
        {
            index = tIndex;
            name = tName;
            type = tType;
            line = tLine;
        }
    }

    class Program
    {
        static void Main(string[] args)
        {
            //init new book keeper
            ScalaBookKeeper bookKeeper = new ScalaBookKeeper();

            //init new error handler
            ScalaErrorHandler errorHandler = new ScalaErrorHandler();

            //init new scanner
            ScalaScanner scanner = new ScalaScanner("../../../source_code.txt", bookKeeper, errorHandler);

            //output the source code
            Console.WriteLine("---SOURCE CODE---");
            Console.WriteLine(scanner.sourceCode);

            //output the lex header
            bookKeeper.printLexOutputHeader();

            //scan
            ScalaToken newToken;
            do
            {
                //scan a token
                newToken = scanner.scanToken();

            } while (!scanner.isEndOfSource());

            //display the symbol table
            bookKeeper.printSymTab();

            Console.ReadLine();
        }


    }
}
